{
    "jet_collection": "AntiKt10LCTopoTrimmedPtFrac5SmallR20",
    "jet_calib_file": "JES_MC16recommendation_FatJet_JMS_comb_19Jan2018.config",
    "cal_seq": "EtaJES_JMS",
    "cal_area": "00-04-81",
    "subjets": [
        {
            "input_name": "GhostVR30Rmax4Rmin02TrackJet",
            "output_name": "VR",
            "store_tracks": true,
            "get_subjets_from_parent": true,
            "n_subjets_to_save": 3
        },
        {
            "input_name": "GhostVR30Rmax4Rmin02TrackJetGhostTag",
            "output_name": "VRGhostTag",
            "store_tracks": true,
            "get_subjets_from_parent": true,
            "n_subjets_to_save": 3
        },
        {
            "input_name": "ExKt2SubJets",
            "output_name": "ExKt2",
            "store_tracks": false,
            "get_subjets_from_parent": false,
            "n_subjets_to_save": 2
        },
        {
            "input_name": "ExKt3SubJets",
            "output_name": "ExKt3",
            "store_tracks": false,
            "get_subjets_from_parent": false,
            "n_subjets_to_save": 3
        },
        {
            "input_name": "ExCoM2SubJets",
            "output_name": "ExCoM2",
            "store_tracks": false,
            "get_subjets_from_parent": false,
            "n_subjets_to_save": 2
        }
    ]
}
